<svg width="748" height="748" viewBox="0 0 748 748" version="1.1" xmlns="http://www.w3.org/2000/svg" xmlns:xlink="http://www.w3.org/1999/xlink">
<title>Top bud</title>
<desc>Created using Figma</desc>
<g id="Canvas" transform="translate(206 -395)">
<g id="Top bud">
<g id="Top white bud">
<g id="Eye">
<use xlink:href="#path0_stroke" transform="matrix(0.707107 0.707107 -0.707107 0.707107 -17.6155 459.641)" fill="#FFFFFF"/>
</g>
<g id="Eye">
<use xlink:href="#path0_stroke" transform="matrix(0.707107 0.707107 -0.707107 0.707107 106.128 583.384)" fill="#FFFFFF"/>
</g>
<g id="Eye">
<use xlink:href="#path0_stroke" transform="matrix(0.707107 -0.707107 0.707107 0.707107 -141.359 954.616)" fill="#FFFFFF"/>
</g>
<g id="Eye">
<use xlink:href="#path0_stroke" transform="matrix(0.707107 -0.707107 0.707107 0.707107 -17.6155 830.872)" fill="#FFFFFF"/>
</g>
</g>
<g id="Top black bud">
<g id="Eye">
<use xlink:href="#path1_stroke" transform="matrix(0.707107 0.707107 -0.707107 0.707107 -17.6155 459.641)"/>
</g>
<g id="Eye">
<use xlink:href="#path1_stroke" transform="matrix(0.707107 0.707107 -0.707107 0.707107 106.128 583.384)"/>
</g>
<g id="Eye">
<use xlink:href="#path1_stroke" transform="matrix(0.707107 -0.707107 0.707107 0.707107 -141.359 954.616)"/>
</g>
<g id="Eye">
<use xlink:href="#path1_stroke" transform="matrix(0.707107 -0.707107 0.707107 0.707107 -17.6155 830.872)"/>
</g>
</g>
</g>
</g>
<defs>
<path id="path0_stroke" d="M 0 87.5L -14.7882 61.3981L -60.8595 87.5L -14.7882 113.602L 0 87.5ZM 525 87.5L 539.788 113.602L 585.859 87.5L 539.788 61.3981L 525 87.5ZM 0 87.5C 14.7882 113.602 14.7849 113.604 14.7823 113.605C 14.7822 113.605 14.7801 113.606 14.7799 113.607C 14.7795 113.607 14.7814 113.606 14.7856 113.603C 14.794 113.599 14.8117 113.589 14.8386 113.573C 14.8923 113.543 14.9827 113.492 15.1091 113.422C 15.3618 113.28 15.758 113.059 16.2918 112.763C 17.3593 112.172 18.9761 111.284 21.0933 110.142C 25.3291 107.856 31.5592 104.557 39.3943 100.581C 55.0878 92.6187 77.1001 82.0054 102.339 71.4122C 153.92 49.7623 214.842 30 262.5 30L 262.5 -30C 202.1 -30 131.772 -6.01232 79.1179 16.0878C 52.2388 27.3696 28.887 38.6313 12.2457 47.0748C 3.91342 51.3025 -2.76645 54.839 -7.39882 57.3385C -9.71571 58.5887 -11.5226 59.5807 -12.7701 60.2713C -13.3939 60.6167 -13.8781 60.8869 -14.2164 61.0764C -14.3856 61.1712 -14.5183 61.2458 -14.6139 61.2997C -14.6616 61.3266 -14.7001 61.3483 -14.7292 61.3647C -14.7437 61.3729 -14.7559 61.3798 -14.7658 61.3854C -14.7707 61.3882 -14.7763 61.3914 -14.7787 61.3927C -14.7838 61.3956 -14.7882 61.3981 0 87.5ZM 262.5 30C 310.158 30 371.08 49.7623 422.661 71.4122C 447.9 82.0054 469.912 92.6187 485.606 100.581C 493.441 104.557 499.671 107.856 503.907 110.142C 506.024 111.284 507.641 112.172 508.708 112.763C 509.242 113.059 509.638 113.28 509.891 113.422C 510.017 113.492 510.108 113.543 510.161 113.573C 510.188 113.589 510.206 113.599 510.214 113.603C 510.219 113.606 510.221 113.607 510.22 113.607C 510.22 113.606 510.218 113.605 510.218 113.605C 510.215 113.604 510.212 113.602 525 87.5C 539.788 61.3981 539.784 61.3956 539.779 61.3927C 539.776 61.3914 539.771 61.3882 539.766 61.3854C 539.756 61.3798 539.744 61.3729 539.729 61.3647C 539.7 61.3483 539.662 61.3266 539.614 61.2997C 539.518 61.2458 539.386 61.1712 539.216 61.0764C 538.878 60.8869 538.394 60.6167 537.77 60.2713C 536.523 59.5807 534.716 58.5887 532.399 57.3385C 527.766 54.839 521.087 51.3025 512.754 47.0748C 496.113 38.6313 472.761 27.3696 445.882 16.0878C 393.228 -6.01232 322.9 -30 262.5 -30L 262.5 30ZM 525 87.5C 510.212 61.3981 510.215 61.3962 510.218 61.3947C 510.218 61.3947 510.22 61.3935 510.22 61.3934C 510.221 61.3931 510.219 61.3942 510.214 61.3966C 510.206 61.4014 510.188 61.4114 510.161 61.4265C 510.108 61.4568 510.017 61.5076 509.891 61.5784C 509.638 61.72 509.242 61.9412 508.708 62.2367C 507.641 62.8277 506.024 63.7157 503.907 64.8581C 499.671 67.1436 493.441 70.4432 485.606 74.4186C 469.912 82.3813 447.9 92.9946 422.661 103.588C 371.08 125.238 310.158 145 262.5 145L 262.5 205C 322.9 205 393.228 181.012 445.882 158.912C 472.761 147.63 496.113 136.369 512.754 127.925C 521.087 123.697 527.766 120.161 532.399 117.661C 534.716 116.411 536.523 115.419 537.77 114.729C 538.394 114.383 538.878 114.113 539.216 113.924C 539.386 113.829 539.518 113.754 539.614 113.7C 539.662 113.673 539.7 113.652 539.729 113.635C 539.744 113.627 539.756 113.62 539.766 113.615C 539.771 113.612 539.776 113.609 539.779 113.607C 539.784 113.604 539.788 113.602 525 87.5ZM 262.5 145C 214.842 145 153.92 125.238 102.339 103.588C 77.1001 92.9946 55.0878 82.3813 39.3943 74.4186C 31.5592 70.4432 25.3291 67.1436 21.0933 64.8581C 18.9761 63.7157 17.3593 62.8277 16.2918 62.2367C 15.758 61.9412 15.3618 61.72 15.1091 61.5784C 14.9827 61.5076 14.8923 61.4568 14.8386 61.4265C 14.8117 61.4114 14.794 61.4014 14.7856 61.3966C 14.7814 61.3942 14.7795 61.3931 14.7799 61.3934C 14.7801 61.3935 14.7822 61.3947 14.7823 61.3947C 14.7849 61.3962 14.7882 61.3981 0 87.5C -14.7882 113.602 -14.7838 113.604 -14.7787 113.607C -14.7763 113.609 -14.7707 113.612 -14.7658 113.615C -14.7559 113.62 -14.7437 113.627 -14.7292 113.635C -14.7001 113.652 -14.6616 113.673 -14.6139 113.7C -14.5183 113.754 -14.3856 113.829 -14.2164 113.924C -13.8781 114.113 -13.3939 114.383 -12.7701 114.729C -11.5226 115.419 -9.71571 116.411 -7.39882 117.661C -2.76645 120.161 3.91342 123.697 12.2457 127.925C 28.887 136.369 52.2388 147.63 79.1179 158.912C 131.772 181.012 202.1 205 262.5 205L 262.5 145Z"/>
<path id="path1_stroke" d="M 0 87.5L -9.85878 70.0987L -40.573 87.5L -9.85878 104.901L 0 87.5ZM 525 87.5L 534.859 104.901L 565.573 87.5L 534.859 70.0987L 525 87.5ZM 0 87.5C 9.85878 104.901 9.85682 104.902 9.85544 104.903C 9.85576 104.903 9.85497 104.903 9.85561 104.903C 9.85689 104.902 9.8605 104.9 9.86644 104.897C 9.87832 104.89 9.89948 104.878 9.92983 104.861C 9.99055 104.827 10.088 104.772 10.2215 104.697C 10.4885 104.548 10.8994 104.318 11.4481 104.015C 12.5457 103.407 14.1941 102.502 16.3446 101.341C 20.6465 99.0201 26.9516 95.6811 34.8695 91.6637C 50.721 83.6208 72.9565 72.8995 98.4686 62.1915C 150.229 40.4665 212.719 20 262.5 20L 262.5 -20C 204.224 -20 135.463 3.28345 82.988 25.3085C 56.3823 36.4755 33.2538 47.6292 16.7705 55.9926C 8.52105 60.1783 1.91614 63.6752 -2.65013 66.1391C -4.93374 67.3713 -6.70891 68.3459 -7.92643 69.02C -8.53524 69.3571 -9.00475 69.619 -9.32882 69.8006C -9.49086 69.8914 -9.61655 69.9621 -9.70513 70.012C -9.74942 70.0369 -9.78444 70.0567 -9.81007 70.0712C -9.82289 70.0784 -9.83337 70.0843 -9.84149 70.0889C -9.84555 70.0912 -9.84988 70.0937 -9.85191 70.0948C -9.85564 70.0969 -9.85878 70.0987 0 87.5ZM 262.5 20C 312.281 20 374.771 40.4665 426.531 62.1915C 452.043 72.8995 474.279 83.6208 490.13 91.6637C 498.048 95.6811 504.354 99.0201 508.655 101.341C 510.806 102.502 512.454 103.407 513.552 104.015C 514.101 104.318 514.512 104.548 514.779 104.697C 514.912 104.772 515.009 104.827 515.07 104.861C 515.101 104.878 515.122 104.89 515.134 104.897C 515.139 104.9 515.143 104.902 515.144 104.903C 515.145 104.903 515.144 104.903 515.145 104.903C 515.143 104.902 515.141 104.901 525 87.5C 534.859 70.0987 534.856 70.0969 534.852 70.0948C 534.85 70.0937 534.846 70.0912 534.841 70.0889C 534.833 70.0843 534.823 70.0784 534.81 70.0712C 534.784 70.0567 534.749 70.0369 534.705 70.012C 534.617 69.9621 534.491 69.8914 534.329 69.8006C 534.005 69.619 533.535 69.3571 532.926 69.02C 531.709 68.3459 529.934 67.3713 527.65 66.1391C 523.084 63.6752 516.479 60.1783 508.23 55.9926C 491.746 47.6292 468.618 36.4755 442.012 25.3085C 389.537 3.28345 320.776 -20 262.5 -20L 262.5 20ZM 525 87.5C 515.141 70.0987 515.143 70.0976 515.145 70.0968C 515.144 70.097 515.145 70.0966 515.144 70.0969C 515.143 70.0977 515.139 70.0997 515.134 70.1031C 515.122 70.1098 515.101 70.1217 515.07 70.1388C 515.009 70.173 514.912 70.2278 514.779 70.3026C 514.512 70.4522 514.101 70.6815 513.552 70.9853C 512.454 71.593 510.806 72.4983 508.655 73.6586C 504.354 75.9799 498.048 79.3189 490.13 83.3363C 474.279 91.3792 452.043 102.101 426.531 112.809C 374.771 134.533 312.281 155 262.5 155L 262.5 195C 320.776 195 389.537 171.717 442.012 149.691C 468.618 138.524 491.746 127.371 508.23 119.007C 516.479 114.822 523.084 111.325 527.65 108.861C 529.934 107.629 531.709 106.654 532.926 105.98C 533.535 105.643 534.005 105.381 534.329 105.199C 534.491 105.109 534.617 105.038 534.705 104.988C 534.749 104.963 534.784 104.943 534.81 104.929C 534.823 104.922 534.833 104.916 534.841 104.911C 534.846 104.909 534.85 104.906 534.852 104.905C 534.856 104.903 534.859 104.901 525 87.5ZM 262.5 155C 212.719 155 150.229 134.533 98.4686 112.809C 72.9565 102.101 50.721 91.3792 34.8695 83.3363C 26.9516 79.3189 20.6465 75.9799 16.3446 73.6586C 14.1941 72.4983 12.5457 71.593 11.4481 70.9853C 10.8994 70.6815 10.4885 70.4522 10.2215 70.3026C 10.088 70.2278 9.99055 70.173 9.92983 70.1388C 9.89948 70.1217 9.87832 70.1098 9.86644 70.1031C 9.8605 70.0997 9.85689 70.0977 9.85561 70.0969C 9.85497 70.0966 9.85576 70.097 9.85544 70.0968C 9.85682 70.0976 9.85878 70.0987 0 87.5C -9.85878 104.901 -9.85564 104.903 -9.85191 104.905C -9.84988 104.906 -9.84555 104.909 -9.84149 104.911C -9.83337 104.916 -9.82289 104.922 -9.81007 104.929C -9.78444 104.943 -9.74942 104.963 -9.70513 104.988C -9.61655 105.038 -9.49086 105.109 -9.32882 105.199C -9.00475 105.381 -8.53524 105.643 -7.92643 105.98C -6.70891 106.654 -4.93374 107.629 -2.65013 108.861C 1.91614 111.325 8.52105 114.822 16.7705 119.007C 33.2538 127.371 56.3823 138.524 82.988 149.691C 135.463 171.717 204.224 195 262.5 195L 262.5 155Z"/>
</defs>
</svg>
